aoi_id	salt1_mean	salt1_sum
001-c.png	0.032374341	8205.0176
002-c.png	0.03737345	9494.501
003-c.png	0.028219502	7460.8979
004-c.png	0.038437881	9741.7734
005-c.png	0.041049603	10371.47
006-c.png	0.031070715	7547.605
007-c.png	0.039717603	10058.88
008-c.png	0.051380653	12481.234
009-c.png	0.042116713	10709.606
010-c.png	0.060547616	15396.29
011-c.png	0.051166587	13010.845
012-c.png	0.039637398	9697.21
013-c.png	0.043748673	11203.86
014-c.png	0.069063343	18389.635
015-c.png	0.045682836	11679.822
016-c.png	0.081047624	20687.244
017-c.png	0.058227699	14792.397
018-c.png	0.02836296	7205.4399
019-c.png	0.056898307	14454.674
020-c.png	0.072055414	18305.246
021-c.png	0.040987331	10437.26
022-c.png	0.037895884	9650.0352
023-c.png	0.030555459	7780.8252
024-c.png	0.04979603	13764.121
025-c.png	0.04530843	11463.984
026-c.png	0.042243965	10713.999
027-c.png	0.034568276	8368.1152
028-c.png	0.083666965	21119.215
029-c.png	0.061029751	16161.228
030-c.png	0.065701462	16651.51
031-c.png	0.058768146	14894.316
032-c.png	0.029469853	7456.4917
033-c.png	0.059501521	15044.364
034-c.png	0.064920761	16414.564
035-c.png	0.03781461	9561.0459
036-c.png	0.06465333	16346.948
037-c.png	0.052275129	13204.697
038-c.png	0.044266261	11181.657
039-c.png	0.043590084	11010.855
040-c.png	0.050949443	12869.829
041-c.png	0.041061793	10448.83
042-c.png	0.074776866	19770.105
043-c.png	0.05738993	14603.786
044-c.png	0.052794389	13434.377
045-c.png	0.068804294	19002.094
046-c.png	0.053992838	14331.858
047-c.png	0.056521852	15003.16
001-y.png	0.03516398	11295.479
002-y.png	0.033331003	8073.7021
003-y.png	0.028266486	7175.8149
004-y.png	0.04139198	10490.466
005-y.png	0.028162112	7113.7495
006-y.png	0.030879945	7800.2739
007-y.png	0.03569315	9016.0898
008-y.png	0.033019394	8326.7979
009-y.png	0.033170365	8386.7949
010-y.png	0.031275403	7920.8086
011-y.png	0.034873091	8831.959
012-y.png	0.03023053	7643.4873
013-y.png	0.038625155	12000.758
014-y.png	0.032652467	8242.1357
015-y.png	0.024784571	6256.1211
016-y.png	0.027704826	6981.6162
017-y.png	0.027061567	6876.3442
018-y.png	0.037834659	9979.2695
019-y.png	0.030742096	8140.7837
020-y.png	0.033450145	8471.584
021-y.png	0.032583609	8291.4209
022-y.png	0.036724184	11394.67
023-y.png	0.034322817	9074.541
024-y.png	0.026574485	6707.9316
025-y.png	0.039035883	9459.9561
026-y.png	0.030602861	7737.6274
027-y.png	0.032732587	8295.8125
028-y.png	0.026068399	6595.8525
029-y.png	0.038633153	10206.106
030-y.png	0.027743382	7340.8989
031-y.png	0.029727224	7233.7632
032-y.png	0.050858606	13457.188
033-y.png	0.043650832	13612.861
034-y.png	0.034136873	8680.4609
035-y.png	0.031884491	8107.7158
036-y.png	0.023552969	6222.2231
037-y.png	0.033410065	8467.5137
038-y.png	0.034676474	9131.7021
039-y.png	0.027746009	7020.3228
040-y.png	0.041785982	10590.322
041-y.png	0.031848554	7704.8022
042-y.png	0.033146497	8742.7197
043-y.png	0.032193616	8511.6055
044-y.png	0.031504683	8316.1963
045-y.png	0.028290089	7372.9629
046-y.png	0.046623766	12307.136
047-y.png	0.038493991	10161.144
048-y.png	0.033200372	8763.8027
049-y.png	0.038304612	9701.0264
050-y.png	0.038815193	10116.016
051-y.png	0.027718952	7008.46
052-y.png	0.035247393	8911.9512
053-y.png	0.038671169	10224.193
054-y.png	0.036955167	9778.1152
055-y.png	0.043349646	13450.398
056-y.png	0.026338108	7269.002
001-p.png	0.045414183	11050.996
002-p.png	0.056004699	13595.701
003-p.png	0.047350165	11494.726
004-p.png	0.030740779	7449.7202
005-p.png	0.04907918	11935.075
006-p.png	0.049406793	12014.744
007-p.png	0.047848038	11635.686
008-p.png	0.04624619	11246.148
009-p.png	0.049810193	12086.443
010-p.png	0.036396809	8810.7578
011-p.png	0.092637919	23455.922
012-p.png	0.058020268	14690.731
013-p.png	0.051812988	12564.442
014-p.png	0.099016778	23954.139
015-p.png	0.095697589	23151.16
016-p.png	0.073020533	18506.471
017-p.png	0.092690013	23452.52
018-p.png	0.09014295	21859.305
019-p.png	0.062386759	15773.868
020-p.png	0.048604526	11737.993
021-p.png	0.078935765	20005.639
022-p.png	0.047439672	11531.256
023-p.png	0.046164259	11194.648
024-p.png	0.024191007	6131.0171
025-p.png	0.04642269	11773.815
026-p.png	0.053201597	12901.175
027-p.png	0.045328341	11469.022
028-p.png	0.070719123	17850.922
029-p.png	0.047311746	11480.195
030-p.png	0.049756091	12619.239
031-p.png	0.050737463	12303.632
032-p.png	0.034143858	8645.2246
033-p.png	0.048097685	12161.019
034-p.png	0.051086444	12925.943
035-p.png	0.043433893	10981.825
036-p.png	0.064349368	16293.261
037-p.png	0.091179684	22134.779
038-p.png	0.04398185	11146.848
039-p.png	0.090143204	22846.074
040-p.png	0.0895795	21760.383
041-p.png	0.050047223	12170.483
042-p.png	0.062403679	15740.579
043-p.png	0.09154442	22237.695
044-p.png	0.034323044	8698.9014
045-p.png	0.033527497	10416.926
046-p.png	0.035191327	8918.96
047-p.png	0.038295731	9712.6396
048-p.png	0.046654366	11812.886
049-p.png	0.039678529	10465.608
050-p.png	0.056105006	13596.487
051-p.png	0.064458758	16297.753
052-p.png	0.034321904	8531.9102
053-p.png	0.036968835	9353.8916
054-p.png	0.031877179	9887.3447
055-p.png	0.045329746	11018.392
056-p.png	0.10704115	26974.369
057-p.png	0.033660073	8530.876
058-p.png	0.075272992	19122.652
059-p.png	0.020242622	5137.5776
060-p.png	0.044158019	11207.306
061-p.png	0.021590225	5717.2861
062-p.png	0.089414485	21706.26
063-p.png	0.048900813	12414.107
064-p.png	0.053436063	13510.774
065-p.png	0.04030427	10197.826
066-p.png	0.040248673	9760.1426
067-p.png	0.056098316	13571.305
068-p.png	0.081090152	20517.512
069-p.png	0.056414008	13718.759
070-p.png	0.048091143	12208.562
071-p.png	0.035746239	9059.5986
072-p.png	0.080996506	20513.176
073-p.png	0.032639317	10528.138
074-p.png	0.023677407	6031.8667
075-p.png	0.051792253	12603.023
076-p.png	0.027886897	7050.9233
077-p.png	0.043612707	11053.292
078-p.png	0.044265896	11200.201
079-p.png	0.049754359	12588.897
080-p.png	0.042686984	10800.703
081-p.png	0.025520703	6494.1514
082-p.png	0.10695638	27132.693
083-p.png	0.048355088	11766.63
084-p.png	0.087993562	21425.904
085-p.png	0.030280886	8012.1406
086-p.png	0.091193505	23112.264
087-p.png	0.041420132	13336.703
088-p.png	0.02344339	5941.5396
089-p.png	0.058246348	16088.748
090-p.png	0.080346771	20363.246
091-p.png	0.044045474	10650.46
092-p.png	0.029205773	7401.9697
093-p.png	0.040208425	10224.359
094-p.png	0.061913613	15039.869
095-p.png	0.031248953	7590.9019
096-p.png	0.066703126	16921.248
097-p.png	0.037390146	9869.7646
098-p.png	0.04297566	10917.709
099-p.png	0.060037412	15216.002
100-p.png	0.050134335	12675.965
101-p.png	0.025681844	6498.0459
102-p.png	0.043692246	11055.056
103-p.png	0.024978371	6305.0405
104-p.png	0.044444192	10733.272
105-p.png	0.034687519	10806.55
106-p.png	0.026592879	6734.9126
107-p.png	0.032667339	8630.0576
108-p.png	0.071188375	17292.867
109-p.png	0.048273116	11726.36
110-p.png	0.030660406	7783.5425
111-p.png	0.039986305	10151.043
112-p.png	0.042029802	10644.468
113-p.png	0.042548534	11204.73
114-p.png	0.038388055	9302.9609
115-p.png	0.059774641	15185.389
116-p.png	0.037356917	9452.084
117-p.png	0.030129695	7623.4458
118-p.png	0.02901906	7324.9912
119-p.png	0.068928815	17440.438
120-p.png	0.054556221	13771.081
121-p.png	0.030778229	7800.4961
122-p.png	0.028134391	7391.27
123-p.png	0.027050793	6525.5439
124-p.png	0.028364854	7451.8159
125-p.png	0.031961378	8100.3555
126-p.png	0.032563545	8272.5732
127-p.png	0.04505847	11381.77
128-p.png	0.040352263	9774.4482
129-p.png	0.039883979	10076.967
130-p.png	0.031559095	7973.626
131-p.png	0.058843717	14867.277
132-p.png	0.035240192	8931.3447
133-p.png	0.057229932	14528.562
